GDELT Summary Explorer API Calls in R
…
# paste in the text from the GUI search box.
# note that entire string should be contained in single quotes
search_term <- '"critical race theory"'

df <- read_csv("https://api.gdeltproject.org/api/v2/tv/tv?format=csv&timespan=FULL&last24=yes&dateres=DAY&query=%22critical%20race%20theory%22%20(station:BLOOMBERG%20OR%20station:CNBC%20OR%20station:CNN%20OR%20station:CSPAN%20OR%20station:CSPAN2%20OR%20station:CSPAN3%20OR%20station:FBC%20OR%20station:FOXNEWS%20OR%20station:MSNBC%20)%20&mode=timelinevol&timezoom=yes")  %>% 
  rename(date = 1,
         network = 2,
         value = 3) %>% 
  mutate(search = search_term)
df

# A tibble: 41,148 x 4
   date       network   value search                    
   <date>     <chr>     <dbl> <chr>                     
 1 2009-06-05 BLOOMBERG     0 "\"critical race theory\""
 2 2009-06-06 BLOOMBERG     0 "\"critical race theory\""
 3 2009-06-07 BLOOMBERG     0 "\"critical race theory\""
 4 2009-06-08 BLOOMBERG     0 "\"critical race theory\""
 5 2009-06-09 BLOOMBERG     0 "\"critical race theory\""
 6 2009-06-10 BLOOMBERG     0 "\"critical race theory\""
 7 2009-06-11 BLOOMBERG     0 "\"critical race theory\""
 8 2009-06-12 BLOOMBERG     0 "\"critical race theory\""
 9 2009-06-13 BLOOMBERG     0 "\"critical race theory\""
10 2009-06-14 BLOOMBERG     0 "\"critical race theory\""
# ... with 41,138 more rows
…
starting_date <- NULL

df <- query_tv(search_term,
               mode = "TimelineVol",
               start_date = starting_date) %>% 
  tibble() %>% 
  arrange(date) %>% 
  # filter(network %in% c("CNBC","CNN", "CSPAN", "FOX News", "MSNBC")) %>% 
  mutate(network = as.factor(network),
         search = search_term)
df

# A tibble: 1,350 x 4
   network      date                value search                    
   <fct>        <dttm>              <dbl> <chr>                     
 1 Bloomberg    2009-07-01 12:00:00     0 "\"critical race theory\""
 2 CNBC         2009-07-01 12:00:00     0 "\"critical race theory\""
 3 CNN          2009-07-01 12:00:00     0 "\"critical race theory\""
 4 CSPAN        2009-07-01 12:00:00     0 "\"critical race theory\""
 5 CSPAN2       2009-07-01 12:00:00     0 "\"critical race theory\""
 6 CSPAN3       2009-07-01 12:00:00     0 "\"critical race theory\""
 7 FOX Business 2009-07-01 12:00:00     0 "\"critical race theory\""
 8 FOX News     2009-07-01 12:00:00     0 "\"critical race theory\""
 9 MSNBC        2009-07-01 12:00:00     0 "\"critical race theory\""
10 Bloomberg    2009-08-01 12:00:00     0 "\"critical race theory\""
# ... with 1,340 more rows
…
