N.Craig - GDELT Summary Explorer API Calls in R
…
# paste in the text from the GUI search box.
# note that entire string should be contained in single quotes
search_term <- '"critical race theory"'

# Paste the request URL into a read_csv call and assign to variable
df <- read_csv("https://api.gdeltproject.org/api/v2/tv/tv?format=csv&timespan=FULL&last24=yes&dateres=DAY&query=%22critical%20race%20theory%22%20(station:BLOOMBERG%20OR%20station:CNBC%20OR%20station:CNN%20OR%20station:CSPAN%20OR%20station:CSPAN2%20OR%20station:CSPAN3%20OR%20station:FBC%20OR%20station:FOXNEWS%20OR%20station:MSNBC%20)%20&mode=timelinevol&timezoom=yes")  %>% 
  rename(date = 1,
         network = 2,
         value = 3) %>% 
  mutate(search = search_term)
df

# A tibble: 42,525 x 4
   date       network   value search                    
   <date>     <chr>     <dbl> <chr>                     
 1 2009-06-05 BLOOMBERG     0 "\"critical race theory\""
 2 2009-06-06 BLOOMBERG     0 "\"critical race theory\""
 3 2009-06-07 BLOOMBERG     0 "\"critical race theory\""
 4 2009-06-08 BLOOMBERG     0 "\"critical race theory\""
 5 2009-06-09 BLOOMBERG     0 "\"critical race theory\""
 6 2009-06-10 BLOOMBERG     0 "\"critical race theory\""
 7 2009-06-11 BLOOMBERG     0 "\"critical race theory\""
 8 2009-06-12 BLOOMBERG     0 "\"critical race theory\""
 9 2009-06-13 BLOOMBERG     0 "\"critical race theory\""
10 2009-06-14 BLOOMBERG     0 "\"critical race theory\""
# ... with 42,515 more rows
…
search_term <- '"critical race theory"'
df <- read_csv("https://api.gdeltproject.org/api/v2/tv/tv?format=csv&timespan=FULL&last24=yes&dateres=DAY&query=%22critical%20race%20theory%22%20(station:BLOOMBERG%20OR%20station:CNBC%20OR%20station:CNN%20OR%20station:CSPAN%20OR%20station:CSPAN2%20OR%20station:CSPAN3%20OR%20station:FBC%20OR%20station:FOXNEWS%20OR%20station:MSNBC%20)%20&mode=wordcloud")

Rows: 381 Columns: 2
-- Column specification --------------------------------------------------------
Delimiter: ","
chr (1): Label
dbl (1): Count

i Use `spec()` to retrieve the full column specification for this data.
i Specify the column types or set `show_col_types = FALSE` to quiet this message.

df

# A tibble: 381 x 2
   Label     Count
   <chr>     <dbl>
 1 Race     100   
 2 Theory    95.4 
 3 Critical  93.0 
 4 School    13.7 
 5 Taught    13.1 
 6 Schools   12.7 
 7 Don       11.8 
 8 America   10.4 
 9 Talking    8.76
10 Parents    8.57
# ... with 371 more rows
…
Rows: 1404 Columns: 3
-- Column specification --------------------------------------------------------
Delimiter: ","
chr (2): Date (Monthly +00:00: 06/05/2009 - 05/12/2022), Series
dbl (1): Value

i Use `spec()` to retrieve the full column specification for this data.
i Specify the column types or set `show_col_types = FALSE` to quiet this message.

df_1

# A tibble: 1,404 x 4
   date    network   value search                    
   <chr>   <chr>     <dbl> <chr>                     
 1 6/2009  BLOOMBERG     0 "\"critical race theory\""
 2 7/2009  BLOOMBERG     0 "\"critical race theory\""
 3 8/2009  BLOOMBERG     0 "\"critical race theory\""
 4 9/2009  BLOOMBERG     0 "\"critical race theory\""
 5 10/2009 BLOOMBERG     0 "\"critical race theory\""
 6 11/2009 BLOOMBERG     0 "\"critical race theory\""
 7 12/2009 BLOOMBERG     0 "\"critical race theory\""
 8 1/2010  BLOOMBERG     0 "\"critical race theory\""
 9 2/2010  BLOOMBERG     0 "\"critical race theory\""
10 3/2010  BLOOMBERG     0 "\"critical race theory\""
# ... with 1,394 more rows
…
Rows: 1404 Columns: 3
-- Column specification --------------------------------------------------------
Delimiter: ","
chr (2): Date (Monthly +00:00: 06/05/2009 - 05/12/2022), Series
dbl (1): Value

i Use `spec()` to retrieve the full column specification for this data.
i Specify the column types or set `show_col_types = FALSE` to quiet this message.

df_2

# A tibble: 1,404 x 4
   date    network   value search                    
   <chr>   <chr>     <dbl> <chr>                     
 1 6/2009  BLOOMBERG     0 "\"critical race theory\""
 2 7/2009  BLOOMBERG     0 "\"critical race theory\""
 3 8/2009  BLOOMBERG     0 "\"critical race theory\""
 4 9/2009  BLOOMBERG     0 "\"critical race theory\""
 5 10/2009 BLOOMBERG     0 "\"critical race theory\""
 6 11/2009 BLOOMBERG     0 "\"critical race theory\""
 7 12/2009 BLOOMBERG     0 "\"critical race theory\""
 8 1/2010  BLOOMBERG     0 "\"critical race theory\""
 9 2/2010  BLOOMBERG     0 "\"critical race theory\""
10 3/2010  BLOOMBERG     0 "\"critical race theory\""
# ... with 1,394 more rows
…
starting_date <- NULL

df <- query_tv(search_term,
               mode = "TimelineVol",
               start_date = starting_date) %>% 
  tibble() %>% 
  arrange(date) %>% 
  # filter(network %in% c("CNBC","CNN", "CSPAN", "FOX News", "MSNBC")) %>% 
  mutate(network = as.factor(network),
         search = search_term)
df

# A tibble: 1,395 x 4
   network      date                value search                    
   <fct>        <dttm>              <dbl> <chr>                     
 1 Bloomberg    2009-07-01 12:00:00     0 "\"critical race theory\""
 2 CNBC         2009-07-01 12:00:00     0 "\"critical race theory\""
 3 CNN          2009-07-01 12:00:00     0 "\"critical race theory\""
 4 CSPAN        2009-07-01 12:00:00     0 "\"critical race theory\""
 5 CSPAN2       2009-07-01 12:00:00     0 "\"critical race theory\""
 6 CSPAN3       2009-07-01 12:00:00     0 "\"critical race theory\""
 7 FOX Business 2009-07-01 12:00:00     0 "\"critical race theory\""
 8 FOX News     2009-07-01 12:00:00     0 "\"critical race theory\""
 9 MSNBC        2009-07-01 12:00:00     0 "\"critical race theory\""
10 Bloomberg    2009-08-01 12:00:00     0 "\"critical race theory\""
# ... with 1,385 more rows
…
res <- GET("https://api.gdeltproject.org/api/v2/tv/tv?format=csv&timespan=FULL&last24=yes&dateres=DAY&query=%22critical%20race%20theory%22%20(station:BLOOMBERG%20OR%20station:CNBC%20OR%20station:CNN%20OR%20station:CSPAN%20OR%20station:CSPAN2%20OR%20station:CSPAN3%20OR%20station:FBC%20OR%20station:FOXNEWS%20OR%20station:MSNBC%20)%20&mode=timelinevol&timezoom=yes")
data <- rawToChar(res$content)
read_csv(data)

Rows: 42525 Columns: 3
-- Column specification --------------------------------------------------------
Delimiter: ","
chr  (1): Series
dbl  (1): Value
date (1): Date (Daily +00:00: 06/05/2009 - 05/12/2022)

i Use `spec()` to retrieve the full column specification for this data.
i Specify the column types or set `show_col_types = FALSE` to quiet this message.

# A tibble: 42,525 x 3
   `Date (Daily +00:00: 06/05/2009 - 05/12/2022)` Series    Value
   <date>                                         <chr>     <dbl>
 1 2009-06-05                                     BLOOMBERG     0
 2 2009-06-06                                     BLOOMBERG     0
 3 2009-06-07                                     BLOOMBERG     0
 4 2009-06-08                                     BLOOMBERG     0
 5 2009-06-09                                     BLOOMBERG     0
 6 2009-06-10                                     BLOOMBERG     0
 7 2009-06-11                                     BLOOMBERG     0
 8 2009-06-12                                     BLOOMBERG     0
 9 2009-06-13                                     BLOOMBERG     0
10 2009-06-14                                     BLOOMBERG     0
# ... with 42,515 more rows
…
Rows: 42525 Columns: 3
-- Column specification --------------------------------------------------------
Delimiter: ","
chr  (1): Series
dbl  (1): Value
date (1): Date (Daily +00:00: 06/05/2009 - 05/12/2022)

i Use `spec()` to retrieve the full column specification for this data.
i Specify the column types or set `show_col_types = FALSE` to quiet this message.

# A tibble: 42,525 x 3
   `Date (Daily +00:00: 06/05/2009 - 05/12/2022)` Series    Value
   <date>                                         <chr>     <dbl>
 1 2009-06-05                                     BLOOMBERG     0
 2 2009-06-06                                     BLOOMBERG     0
 3 2009-06-07                                     BLOOMBERG     0
 4 2009-06-08                                     BLOOMBERG     0
 5 2009-06-09                                     BLOOMBERG     0
 6 2009-06-10                                     BLOOMBERG     0
 7 2009-06-11                                     BLOOMBERG     0
 8 2009-06-12                                     BLOOMBERG     0
 9 2009-06-13                                     BLOOMBERG     0
10 2009-06-14                                     BLOOMBERG     0
# ... with 42,515 more rows
That seems like a lot of work to get the data when the request variable can just be passed to read_csv and return a data frame. Still, I believe it is a good exercise to figure out how to construct a request URL from a set of parameters.

read_csv(request)

Rows: 42525 Columns: 3
-- Column specification --------------------------------------------------------
Delimiter: ","
chr  (1): Series
dbl  (1): Value
date (1): Date (Daily +00:00: 06/05/2009 - 05/12/2022)

i Use `spec()` to retrieve the full column specification for this data.
i Specify the column types or set `show_col_types = FALSE` to quiet this message.

# A tibble: 42,525 x 3
   `Date (Daily +00:00: 06/05/2009 - 05/12/2022)` Series    Value
   <date>                                         <chr>     <dbl>
 1 2009-06-05                                     BLOOMBERG     0
 2 2009-06-06                                     BLOOMBERG     0
 3 2009-06-07                                     BLOOMBERG     0
 4 2009-06-08                                     BLOOMBERG     0
 5 2009-06-09                                     BLOOMBERG     0
 6 2009-06-10                                     BLOOMBERG     0
 7 2009-06-11                                     BLOOMBERG     0
 8 2009-06-12                                     BLOOMBERG     0
 9 2009-06-13                                     BLOOMBERG     0
10 2009-06-14                                     BLOOMBERG     0
# ... with 42,515 more rows
…
