ICE Solitary Voices EDA
…
# A tibble: 33 x 2
   facility                                                    n
   <fct>                                                   <int>
 1 AZ - Eloy Federal Contract Facility                        10
 2 NV - Henderson Detention Center                            15
 3 CA - San Diego Contract Detention Facility - CCA (otay)    14
 4 AZ - Pinal County Jail                                      1
 5 CA - California City Correctional Center                    1
 6 CA - Sacramento County Jail-rio Cosumnes Corr. Center      12
 7 LA - Jena/lasalle Detention Facility                        6
 8 TX - El Paso Service Processing Center                      9
 9 TX - Rolling Plains Detention Center                        1
10 CA - Adelanto Correctional Facility                        36
# ... with 23 more rows

# A tibble: 33 x 4
   facility                                              n  mean    sd
   <fct>                                             <int> <dbl> <dbl>
 1 NY - Buffalo (batavia) Service Processing Center      1  747   NA  
 2 AZ - Pinal County Jail                                1  480   NA  
 3 WA - Northwest Detention Center                      14  350. 150. 
 4 AZ - Eloy Federal Contract Facility                  10  336.  97.5
 5 NJ - Hudson County Correctional Center                1  317   NA  
 6 CA - San Diego Contract Detention Facility - CCA~    14  316  132. 
 7 TX - South Texas Detention Complex                    3  311   40.6
 8 CA - Imperial Regional Detention Facility            11  309.  90.9
 9 GA - Stewart Detention Center                         3  305.  51.6
10 LA - Jena/lasalle Detention Facility                  6  301. 101. 
# ... with 23 more rows
…
